[
  {
    "timestamp": "2019-09-16 10:09:59",
    "log_lvl": "INFO",
    "log_msg": "Initial log",
    "log_detail": ""
  },
  {
    "timestamp": "2019-09-16 10:09:59",
    "log_lvl": "INFO",
    "log_msg": "Oauth",
    "log_detail": ""
  }
]
